Id перевода;Id отправителя;Id получателя
100;1;16
101;3;2
102;9;1
103;9;14
104;10;4
105;10;14
106;10;19
107;11;5
108;11;6
109;11;7
110;11;15
111;12;11
112;13;10
113;13;16
114;14;8
115;14;15
116;15;17
117;15;21
118;17;3
119;17;9
120;17;13
121;18;15
122;19;13
123;20;12
124;20;15
125;21;20
